ITmedia NEWSの全記事を用いてIT分野の流行語を調べた
…
概要

ITmedia NEWSの記事データについて、TF-IDFを用いて毎年の「その年のIT分野の世相を表す単語」をピックアップしました。

記事データ

まずは記事のテキストデータを入手する必要があります。

過去記事一覧からスクレイピングで辿ることで、2004年1月以降の全ての記事を取得しました1。サーバに負荷がかからないよう、十分なスリープを挟みました。

2004/1/7～2021/7/31において88638本の記事がありました。そのうち実際に取得できた記事は88249本でした。

記事の日時、タイトル、本文、URLを取得しました。以降、このテキストデータを用いて分析を行います。

## # A tibble: 88,249 x 4
##    datetime            title            content                 url             
##    <dttm>              <chr>            <chr>                   <chr>           
##  1 2004-01-07 13:15:00 “最薄”と“連~     薄型ボディに回転式レン~ https://www.itm~
##  2 2004-01-07 15:02:00 世界初のSerial ~ 富士通は1月5日、Serial~ https://www.itm~
##  3 2004-01-07 15:06:00 コニカミノルタ~  コニカミノルタビジネス~ https://www.itm~
##  4 2004-01-07 15:09:00 Baniasコアの「C~ インテルは1月6日、ノー~ https://www.itm~
##  5 2004-01-07 15:10:00 「モバイルAthlo~ 日本AMDは1月6日、64ビ~  https://www.itm~
##  6 2004-01-07 15:16:00 ラジオたんぱ、P~ 日経ラジオ社（ラジオた~ https://www.itm~
##  7 2004-01-07 15:22:00 年始、ロボット~  昨年のクリスマスを一人~ https://www.itm~
##  8 2004-01-07 18:36:00 2004年の自作PC~  各ショップで口をそろえ~ https://www.itm~
##  9 2004-01-08 08:52:00 ATI、3D対応の携~ グラフィックスチップメ~ https://www.itm~
## 10 2004-01-08 10:56:00 Segwayに新社長   ハイテクスクーターの提~ https://www.itm~
## # ... with 88,239 more rows
…
